…
``` r
cv_df
```

    ## # A tibble: 100 × 9
    ##    train             test     .id   linear_mod smooth_mod wiggly_mod rmse_linear
    ##    <list>            <list>   <chr> <list>     <list>     <list>           <dbl>
    ##  1 <tibble [79 × 3]> <tibble> 001   <lm>       <gam>      <gam>            0.674
    ##  2 <tibble [79 × 3]> <tibble> 002   <lm>       <gam>      <gam>            0.813
    ##  3 <tibble [79 × 3]> <tibble> 003   <lm>       <gam>      <gam>            0.700
    ##  4 <tibble [79 × 3]> <tibble> 004   <lm>       <gam>      <gam>            0.705
    ##  5 <tibble [79 × 3]> <tibble> 005   <lm>       <gam>      <gam>            0.705
    ##  6 <tibble [79 × 3]> <tibble> 006   <lm>       <gam>      <gam>            0.701
    ##  7 <tibble [79 × 3]> <tibble> 007   <lm>       <gam>      <gam>            0.572
    ##  8 <tibble [79 × 3]> <tibble> 008   <lm>       <gam>      <gam>            0.813
    ##  9 <tibble [79 × 3]> <tibble> 009   <lm>       <gam>      <gam>            0.759
    ## 10 <tibble [79 × 3]> <tibble> 010   <lm>       <gam>      <gam>            0.693
    ## # ℹ 90 more rows
    ## # ℹ 2 more variables: rmse_smooth <dbl>, rmse_wiggly <dbl>
…
